solid Onshape
  facet normal 0 0 -1
    outer loop
      vertex 0.0625 1.14811e-17 -0.5
      vertex 0.0621336 -0.00675744 -0.5
      vertex 0 3.82702e-18 -0.5
    endloop
  endfacet
  facet normal 0 0 -1
    outer loop
      vertex 0.0592283 0.0199563 -0.5
      vertex 0.0610388 0.0134357 -0.5
      vertex 0 3.82702e-18 -0.5
    endloop
  endfacet
  facet normal 0 0 -1
    outer loop
      vertex 0.0610388 0.0134357 -0.5
      vertex 0.0621336 0.00675744 -0.5
      vertex 0 3.82702e-18 -0.5
    endloop
  endfacet
  facet normal 0 0 -1
    outer loop
      vertex 0 3.82702e-18 -0.5
      vertex 0.0621336 0.00675744 -0.5
      vertex 0.0625 1.14811e-17 -0.5
    endloop
  endfacet
  facet normal 0 0 -1
    outer loop
      vertex 0.0497558 0.0378234 -0.5
      vertex 0.0535536 0.0322221 -0.5
      vertex 0 3.82702e-18 -0.5
    endloop
  endfacet
  facet normal 0 0 -1
    outer loop
      vertex 0.0535536 0.0322221 -0.5
      vertex 0.0567235 0.0262431 -0.5
      vertex 0 3.82702e-18 -0.5
    endloop
  endfacet
  facet normal 0 0 -1
    outer loop
      vertex 0 3.82702e-18 -0.5
      vertex 0.0567235 0.0262431 -0.5
      vertex 0.0592283 0.0199563 -0.5
    endloop
  endfacet
  facet normal 0 0 -1
    outer loop
      vertex 0.0350742 0.0517306 -0.5
      vertex 0.0404616 0.0476351 -0.5
      vertex 0 3.82702e-18 -0.5
    endloop
  endfacet
  facet normal 0 0 -1
    outer loop
      vertex 0.0404616 0.0476351 -0.5
      vertex 0.0453747 0.0429812 -0.5
      vertex 0 3.82702e-18 -0.5
    endloop
  endfacet
  facet normal 0 0 -1
    outer loop
      vertex 0 3.82702e-18 -0.5
      vertex 0.0453747 0.0429812 -0.5
      vertex 0.0497558 0.0378234 -0.5
    endloop
  endfacet
  facet normal 0 0 -1
    outer loop
      vertex 0.0167205 0.0602219 -0.5
      vertex 0.0231336 0.058061 -0.5
      vertex 0 3.82702e-18 -0.5
    endloop
  endfacet
  facet normal 0 0 -1
    outer loop
      vertex 0.0231336 0.058061 -0.5
      vertex 0.0292755 0.0552195 -0.5
      vertex 0 3.82702e-18 -0.5
    endloop
  endfacet
  facet normal 0 0 -1
    outer loop
      vertex 0 3.82702e-18 -0.5
      vertex 0.0292755 0.0552195 -0.5
      vertex 0.0350742 0.0517306 -0.5
    endloop
  endfacet
  facet normal 0 0 -1
    outer loop
      vertex -0.00338368 0.0624083 -0.5
      vertex 0.00338368 0.0624083 -0.5
      vertex 0 3.82702e-18 -0.5
    endloop
  endfacet
  facet normal 0 0 -1
    outer loop
      vertex 0.00338368 0.0624083 -0.5
      vertex 0.0101114 0.0616767 -0.5
      vertex 0 3.82702e-18 -0.5
    endloop
  endfacet
  facet normal 0 0 -1
    outer loop
      vertex 0 3.82702e-18 -0.5
      vertex 0.0101114 0.0616767 -0.5
      vertex 0.0167205 0.0602219 -0.5
    endloop
  endfacet
  facet normal 0 0 -1
    outer loop
      vertex -0.0231336 0.058061 -0.5
      vertex -0.0167205 0.0602219 -0.5
      vertex 0 3.82702e-18 -0.5
    endloop
  endfacet
  facet normal 0 0 -1
    outer loop
      vertex -0.0167205 0.0602219 -0.5
      vertex -0.0101114 0.0616767 -0.5
      vertex 0 3.82702e-18 -0.5
    endloop
  endfacet
  facet normal 0 0 -1
    outer loop
      vertex 0 3.82702e-18 -0.5
      vertex -0.0101114 0.0616767 -0.5
      vertex -0.00338368 0.0624083 -0.5
    endloop
  endfacet
  facet normal 0 0 -1
    outer loop
      vertex -0.0404616 0.0476351 -0.5
      vertex -0.0350742 0.0517306 -0.5
      vertex 0 3.82702e-18 -0.5
    endloop
  endfacet
  facet normal 0 0 -1
    outer loop
      vertex -0.0350742 0.0517306 -0.5
      vertex -0.0292755 0.0552195 -0.5
      vertex 0 3.82702e-18 -0.5
    endloop
  endfacet
  facet normal 0 0 -1
    outer loop
      vertex 0 3.82702e-18 -0.5
      vertex -0.0292755 0.0552195 -0.5
      vertex -0.0231336 0.058061 -0.5
    endloop
  endfacet
  facet normal 0 0 -1
    outer loop
      vertex -0.0535536 0.0322221 -0.5
      vertex -0.0497558 0.0378234 -0.5
      vertex 0 3.82702e-18 -0.5
    endloop
  endfacet
  facet normal 0 0 -1
    outer loop
      vertex -0.0497558 0.0378234 -0.5
      vertex -0.0453747 0.0429812 -0.5
      vertex 0 3.82702e-18 -0.5
    endloop
  endfacet
  facet normal 0 0 -1
    outer loop
      vertex 0 3.82702e-18 -0.5
      vertex -0.0453747 0.0429812 -0.5
      vertex -0.0404616 0.0476351 -0.5
    endloop
  endfacet
  facet normal 0 0 -1
    outer loop
      vertex -0.0610388 0.0134357 -0.5
      vertex -0.0592283 0.0199563 -0.5
      vertex 0 3.82702e-18 -0.5
    endloop
  endfacet
  facet normal 0 0 -1
    outer loop
      vertex -0.0592283 0.0199563 -0.5
      vertex -0.0567235 0.0262431 -0.5
      vertex 0 3.82702e-18 -0.5
    endloop
  endfacet
  facet normal 0 0 -1
    outer loop
      vertex 0 3.82702e-18 -0.5
      vertex -0.0567235 0.0262431 -0.5
      vertex -0.0535536 0.0322221 -0.5
    endloop
  endfacet
  facet normal 0 0 -1
    outer loop
      vertex -0.0621336 -0.00675744 -0.5
      vertex -0.0625 3.82702e-18 -0.5
      vertex 0 3.82702e-18 -0.5
    endloop
  endfacet
  facet normal 0 0 -1
    outer loop
      vertex -0.0625 3.82702e-18 -0.5
      vertex -0.0621336 0.00675744 -0.5
      vertex 0 3.82702e-18 -0.5
    endloop
  endfacet
  facet normal 0 0 -1
    outer loop
      vertex 0 3.82702e-18 -0.5
      vertex -0.0621336 0.00675744 -0.5
      vertex -0.0610388 0.0134357 -0.5
    endloop
  endfacet
  facet normal 0 0 -1
    outer loop
      vertex -0.0567235 -0.0262431 -0.5
      vertex -0.0592283 -0.0199563 -0.5
      vertex 0 3.82702e-18 -0.5
    endloop
  endfacet
  facet normal 0 0 -1
    outer loop
      vertex -0.0592283 -0.0199563 -0.5
      vertex -0.0610388 -0.0134357 -0.5
      vertex 0 3.82702e-18 -0.5
    endloop
  endfacet
  facet normal 0 0 -1
    outer loop
      vertex 0 3.82702e-18 -0.5
      vertex -0.0610388 -0.0134357 -0.5
      vertex -0.0621336 -0.00675744 -0.5
    endloop
  endfacet
  facet normal 0 0 -1
    outer loop
      vertex -0.0453747 -0.0429812 -0.5
      vertex -0.0497558 -0.0378234 -0.5
      vertex 0 3.82702e-18 -0.5
    endloop
  endfacet
  facet normal 0 0 -1
    outer loop
      vertex -0.0497558 -0.0378234 -0.5
      vertex -0.0535536 -0.0322221 -0.5
      vertex 0 3.82702e-18 -0.5
    endloop
  endfacet
  facet normal 0 0 -1
    outer loop
      vertex 0 3.82702e-18 -0.5
      vertex -0.0535536 -0.0322221 -0.5
      vertex -0.0567235 -0.0262431 -0.5
    endloop
  endfacet
  facet normal 0 0 -1
    outer loop
      vertex -0.0292755 -0.0552195 -0.5
      vertex -0.0350742 -0.0517306 -0.5
      vertex 0 3.82702e-18 -0.5
    endloop
  endfacet
  facet normal 0 0 -1
    outer loop
      vertex -0.0350742 -0.0517306 -0.5
      vertex -0.0404616 -0.0476351 -0.5
      vertex 0 3.82702e-18 -0.5
    endloop
  endfacet
  facet normal 0 0 -1
    outer loop
      vertex 0 3.82702e-18 -0.5
      vertex -0.0404616 -0.0476351 -0.5
      vertex -0.0453747 -0.0429812 -0.5
    endloop
  endfacet
  facet normal 0 0 -1
    outer loop
      vertex -0.0101114 -0.0616767 -0.5
      vertex -0.0167205 -0.0602219 -0.5
      vertex 0 3.82702e-18 -0.5
    endloop
  endfacet
  facet normal 0 0 -1
    outer loop
      vertex -0.0167205 -0.0602219 -0.5
      vertex -0.0231336 -0.058061 -0.5
      vertex 0 3.82702e-18 -0.5
    endloop
  endfacet
  facet normal 0 0 -1
    outer loop
      vertex 0 3.82702e-18 -0.5
      vertex -0.0231336 -0.058061 -0.5
      vertex -0.0292755 -0.0552195 -0.5
    endloop
  endfacet
  facet normal 0 0 -1
    outer loop
      vertex 0.0101114 -0.0616767 -0.5
      vertex 0.00338368 -0.0624083 -0.5
      vertex 0 3.82702e-18 -0.5
    endloop
  endfacet
  facet normal 0 0 -1
    outer loop
      vertex 0.00338368 -0.0624083 -0.5
      vertex -0.00338368 -0.0624083 -0.5
      vertex 0 3.82702e-18 -0.5
    endloop
  endfacet
  facet normal 0 0 -1
    outer loop
      vertex 0 3.82702e-18 -0.5
      vertex -0.00338368 -0.0624083 -0.5
      vertex -0.0101114 -0.0616767 -0.5
    endloop
  endfacet
  facet normal 0 0 -1
    outer loop
      vertex 0.0292755 -0.0552195 -0.5
      vertex 0.0231336 -0.058061 -0.5
      vertex 0 3.82702e-18 -0.5
    endloop
  endfacet
  facet normal 0 0 -1
    outer loop
      vertex 0.0231336 -0.058061 -0.5
      vertex 0.0167205 -0.0602219 -0.5
      vertex 0 3.82702e-18 -0.5
    endloop
  endfacet
  facet normal 0 0 -1
    outer loop
      vertex 0 3.82702e-18 -0.5
      vertex 0.0167205 -0.0602219 -0.5
      vertex 0.0101114 -0.0616767 -0.5
    endloop
  endfacet
  facet normal 0 0 -1
    outer loop
      vertex 0.0453747 -0.0429812 -0.5
      vertex 0.0404616 -0.0476351 -0.5
      vertex 0 3.82702e-18 -0.5
    endloop
  endfacet
  facet normal 0 0 -1
    outer loop
      vertex 0.0404616 -0.0476351 -0.5
      vertex 0.0350742 -0.0517306 -0.5
      vertex 0 3.82702e-18 -0.5
    endloop
  endfacet
  facet normal 0 0 -1
    outer loop
      vertex 0 3.82702e-18 -0.5
      vertex 0.0350742 -0.0517306 -0.5
      vertex 0.0292755 -0.0552195 -0.5
    endloop
  endfacet
  facet normal 0 0 -1
    outer loop
      vertex 0.0567235 -0.0262431 -0.5
      vertex 0.0535536 -0.0322221 -0.5
      vertex 0 3.82702e-18 -0.5
    endloop
  endfacet
  facet normal 0 0 -1
    outer loop
      vertex 0.0535536 -0.0322221 -0.5
      vertex 0.0497558 -0.0378234 -0.5
      vertex 0 3.82702e-18 -0.5
    endloop
  endfacet
  facet normal 0 0 -1
    outer loop
      vertex 0 3.82702e-18 -0.5
      vertex 0.0497558 -0.0378234 -0.5
      vertex 0.0453747 -0.0429812 -0.5
    endloop
  endfacet
  facet normal 0 0 -1
    outer loop
      vertex 0.0621336 -0.00675744 -0.5
      vertex 0.0610388 -0.0134357 -0.5
      vertex 0 3.82702e-18 -0.5
    endloop
  endfacet
  facet normal 0 0 -1
    outer loop
      vertex 0.0610388 -0.0134357 -0.5
      vertex 0.0592283 -0.0199563 -0.5
      vertex 0 3.82702e-18 -0.5
    endloop
  endfacet
  facet normal 0 0 -1
    outer loop
      vertex 0 3.82702e-18 -0.5
      vertex 0.0592283 -0.0199563 -0.5
      vertex 0.0567235 -0.0262431 -0.5
    endloop
  endfacet
  facet normal -0.998533 0.054139 0
    outer loop
      vertex -0.0625 3.82702e-18 -0.5
      vertex -0.0621336 0.00675744 0.5
      vertex -0.0621336 0.00675744 -0.5
    endloop
  endfacet
  facet normal -0.986827 0.161782 0
    outer loop
      vertex -0.0621336 0.00675744 0.5
      vertex -0.0610388 0.0134357 0.5
      vertex -0.0621336 0.00675744 -0.5
    endloop
  endfacet
  facet normal -0.986827 0.161782 0
    outer loop
      vertex -0.0621336 0.00675744 -0.5
      vertex -0.0610388 0.0134357 0.5
      vertex -0.0610388 0.0134357 -0.5
    endloop
  endfacet
  facet normal -0.96355 0.267528 0
    outer loop
      vertex -0.0610388 0.0134357 0.5
      vertex -0.0592283 0.0199563 0.5
      vertex -0.0610388 0.0134357 -0.5
    endloop
  endfacet
  facet normal -0.96355 0.267528 0
    outer loop
      vertex -0.0610388 0.0134357 -0.5
      vertex -0.0592283 0.0199563 0.5
      vertex -0.0592283 0.0199563 -0.5
    endloop
  endfacet
  facet normal -0.928977 0.370138 0
    outer loop
      vertex -0.0592283 0.0199563 0.5
      vertex -0.0567235 0.0262431 0.5
      vertex -0.0592283 0.0199563 -0.5
    endloop
  endfacet
  facet normal -0.928977 0.370138 0
    outer loop
      vertex -0.0592283 0.0199563 -0.5
      vertex -0.0567235 0.0262431 0.5
      vertex -0.0567235 0.0262431 -0.5
    endloop
  endfacet
  facet normal -0.883512 0.468409 0
    outer loop
      vertex -0.0567235 0.0262431 0.5
      vertex -0.0535536 0.0322221 0.5
      vertex -0.0567235 0.0262431 -0.5
    endloop
  endfacet
  facet normal -0.883512 0.468409 0
    outer loop
      vertex -0.0567235 0.0262431 -0.5
      vertex -0.0535536 0.0322221 0.5
      vertex -0.0535536 0.0322221 -0.5
    endloop
  endfacet
  facet normal -0.827689 0.561187 0
    outer loop
      vertex -0.0535536 0.0322221 0.5
      vertex -0.0497558 0.0378234 0.5
      vertex -0.0535536 0.0322221 -0.5
    endloop
  endfacet
  facet normal -0.827689 0.561187 0
    outer loop
      vertex -0.0535536 0.0322221 -0.5
      vertex -0.0497558 0.0378234 0.5
      vertex -0.0497558 0.0378234 -0.5
    endloop
  endfacet
  facet normal -0.762162 0.647386 0
    outer loop
      vertex -0.0497558 0.0378234 0.5
      vertex -0.0453747 0.0429812 0.5
      vertex -0.0497558 0.0378234 -0.5
    endloop
  endfacet
  facet normal -0.762162 0.647386 0
    outer loop
      vertex -0.0497558 0.0378234 -0.5
      vertex -0.0453747 0.0429812 0.5
      vertex -0.0453747 0.0429812 -0.5
    endloop
  endfacet
  facet normal -0.6877 0.725995 0
    outer loop
      vertex -0.0453747 0.0429812 0.5
      vertex -0.0404616 0.0476351 0.5
      vertex -0.0453747 0.0429812 -0.5
    endloop
  endfacet
  facet normal -0.6877 0.725995 0
    outer loop
      vertex -0.0453747 0.0429812 -0.5
      vertex -0.0404616 0.0476351 0.5
      vertex -0.0404616 0.0476351 -0.5
    endloop
  endfacet
  facet normal -0.605174 0.796093 0
    outer loop
      vertex -0.0404616 0.0476351 0.5
      vertex -0.0350742 0.0517306 0.5
      vertex -0.0404616 0.0476351 -0.5
    endloop
  endfacet
  facet normal -0.605174 0.796093 0
    outer loop
      vertex -0.0404616 0.0476351 -0.5
      vertex -0.0350742 0.0517306 0.5
      vertex -0.0350742 0.0517306 -0.5
    endloop
  endfacet
  facet normal -0.515554 0.856857 0
    outer loop
      vertex -0.0350742 0.0517306 0.5
      vertex -0.0292755 0.0552195 0.5
      vertex -0.0350742 0.0517306 -0.5
    endloop
  endfacet
  facet normal -0.515554 0.856857 0
    outer loop
      vertex -0.0350742 0.0517306 -0.5
      vertex -0.0292755 0.0552195 0.5
      vertex -0.0292755 0.0552195 -0.5
    endloop
  endfacet
  facet normal -0.419889 0.907575 0
    outer loop
      vertex -0.0292755 0.0552195 0.5
      vertex -0.0231336 0.058061 0.5
      vertex -0.0292755 0.0552195 -0.5
    endloop
  endfacet
  facet normal -0.419889 0.907575 0
    outer loop
      vertex -0.0292755 0.0552195 -0.5
      vertex -0.0231336 0.058061 0.5
      vertex -0.0231336 0.058061 -0.5
    endloop
  endfacet
  facet normal -0.319301 0.947653 0
    outer loop
      vertex -0.0231336 0.058061 0.5
      vertex -0.0167205 0.0602219 0.5
      vertex -0.0231336 0.058061 -0.5
    endloop
  endfacet
  facet normal -0.319301 0.947653 0
    outer loop
      vertex -0.0231336 0.058061 -0.5
      vertex -0.0167205 0.0602219 0.5
      vertex -0.0167205 0.0602219 -0.5
    endloop
  endfacet
  facet normal -0.214971 0.97662 0
    outer loop
      vertex -0.0167205 0.0602219 0.5
      vertex -0.0101114 0.0616767 0.5
      vertex -0.0167205 0.0602219 -0.5
    endloop
  endfacet
  facet normal -0.214971 0.97662 0
    outer loop
      vertex -0.0167205 0.0602219 -0.5
      vertex -0.0101114 0.0616767 0.5
      vertex -0.0101114 0.0616767 -0.5
    endloop
  endfacet
  facet normal -0.108119 0.994138 0
    outer loop
      vertex -0.0101114 0.0616767 0.5
      vertex -0.00338368 0.0624083 0.5
      vertex -0.0101114 0.0616767 -0.5
    endloop
  endfacet
  facet normal -0.108119 0.994138 0
    outer loop
      vertex -0.0101114 0.0616767 -0.5
      vertex -0.00338368 0.0624083 0.5
      vertex -0.00338368 0.0624083 -0.5
    endloop
  endfacet
  facet normal 0 1 0
    outer loop
      vertex -0.00338368 0.0624083 0.5
      vertex 0.00338368 0.0624083 0.5
      vertex -0.00338368 0.0624083 -0.5
    endloop
  endfacet
  facet normal 0 1 0
    outer loop
      vertex -0.00338368 0.0624083 -0.5
      vertex 0.00338368 0.0624083 0.5
      vertex 0.00338368 0.0624083 -0.5
    endloop
  endfacet
  facet normal 0.108119 0.994138 0
    outer loop
      vertex 0.00338368 0.0624083 0.5
      vertex 0.0101114 0.0616767 0.5
      vertex 0.00338368 0.0624083 -0.5
    endloop
  endfacet
  facet normal 0.108119 0.994138 0
    outer loop
      vertex 0.00338368 0.0624083 -0.5
      vertex 0.0101114 0.0616767 0.5
      vertex 0.0101114 0.0616767 -0.5
    endloop
  endfacet
  facet normal 0.214971 0.97662 0
    outer loop
      vertex 0.0101114 0.0616767 0.5
      vertex 0.0167205 0.0602219 0.5
      vertex 0.0101114 0.0616767 -0.5
    endloop
  endfacet
  facet normal 0.214971 0.97662 0
    outer loop
      vertex 0.0101114 0.0616767 -0.5
      vertex 0.0167205 0.0602219 0.5
      vertex 0.0167205 0.0602219 -0.5
    endloop
  endfacet
  facet normal 0.319301 0.947653 0
    outer loop
      vertex 0.0167205 0.0602219 0.5
      vertex 0.0231336 0.058061 0.5
      vertex 0.0167205 0.0602219 -0.5
    endloop
  endfacet
  facet normal 0.319301 0.947653 0
    outer loop
      vertex 0.0167205 0.0602219 -0.5
      vertex 0.0231336 0.058061 0.5
      vertex 0.0231336 0.058061 -0.5
    endloop
  endfacet
  facet normal 0.419889 0.907575 0
    outer loop
      vertex 0.0231336 0.058061 0.5
      vertex 0.0292755 0.0552195 0.5
      vertex 0.0231336 0.058061 -0.5
    endloop
  endfacet
  facet normal 0.419889 0.907575 0
    outer loop
      vertex 0.0231336 0.058061 -0.5
      vertex 0.0292755 0.0552195 0.5
      vertex 0.0292755 0.0552195 -0.5
    endloop
  endfacet
  facet normal 0.515554 0.856857 0
    outer loop
      vertex 0.0292755 0.0552195 0.5
      vertex 0.0350742 0.0517306 0.5
      vertex 0.0292755 0.0552195 -0.5
    endloop
  endfacet
  facet normal 0.515554 0.856857 0
    outer loop
      vertex 0.0292755 0.0552195 -0.5
      vertex 0.0350742 0.0517306 0.5
      vertex 0.0350742 0.0517306 -0.5
    endloop
  endfacet
  facet normal 0.605174 0.796093 0
    outer loop
      vertex 0.0350742 0.0517306 0.5
      vertex 0.0404616 0.0476351 0.5
      vertex 0.0350742 0.0517306 -0.5
    endloop
  endfacet
  facet normal 0.605174 0.796093 0
    outer loop
      vertex 0.0350742 0.0517306 -0.5
      vertex 0.0404616 0.0476351 0.5
      vertex 0.0404616 0.0476351 -0.5
    endloop
  endfacet
  facet normal 0.6877 0.725995 0
    outer loop
      vertex 0.0404616 0.0476351 0.5
      vertex 0.0453747 0.0429812 0.5
      vertex 0.0404616 0.0476351 -0.5
    endloop
  endfacet
  facet normal 0.6877 0.725995 0
    outer loop
      vertex 0.0404616 0.0476351 -0.5
      vertex 0.0453747 0.0429812 0.5
      vertex 0.0453747 0.0429812 -0.5
    endloop
  endfacet
  facet normal 0.762162 0.647386 0
    outer loop
      vertex 0.0453747 0.0429812 0.5
      vertex 0.0497558 0.0378234 0.5
      vertex 0.0453747 0.0429812 -0.5
    endloop
  endfacet
  facet normal 0.762162 0.647386 0
    outer loop
      vertex 0.0453747 0.0429812 -0.5
      vertex 0.0497558 0.0378234 0.5
      vertex 0.0497558 0.0378234 -0.5
    endloop
  endfacet
  facet normal 0.827689 0.561187 0
    outer loop
      vertex 0.0497558 0.0378234 0.5
      vertex 0.0535536 0.0322221 0.5
      vertex 0.0497558 0.0378234 -0.5
    endloop
  endfacet
  facet normal 0.827689 0.561187 0
    outer loop
      vertex 0.0497558 0.0378234 -0.5
      vertex 0.0535536 0.0322221 0.5
      vertex 0.0535536 0.0322221 -0.5
    endloop
  endfacet
  facet normal 0.883512 0.468409 0
    outer loop
      vertex 0.0535536 0.0322221 0.5
      vertex 0.0567235 0.0262431 0.5
      vertex 0.0535536 0.0322221 -0.5
    endloop
  endfacet
  facet normal 0.883512 0.468409 0
    outer loop
      vertex 0.0535536 0.0322221 -0.5
      vertex 0.0567235 0.0262431 0.5
      vertex 0.0567235 0.0262431 -0.5
    endloop
  endfacet
  facet normal 0.928977 0.370138 0
    outer loop
      vertex 0.0567235 0.0262431 0.5
      vertex 0.0592283 0.0199563 0.5
      vertex 0.0567235 0.0262431 -0.5
    endloop
  endfacet
  facet normal 0.928977 0.370138 0
    outer loop
      vertex 0.0567235 0.0262431 -0.5
      vertex 0.0592283 0.0199563 0.5
      vertex 0.0592283 0.0199563 -0.5
    endloop
  endfacet
  facet normal 0.96355 0.267528 0
    outer loop
      vertex 0.0592283 0.0199563 0.5
      vertex 0.0610388 0.0134357 0.5
      vertex 0.0592283 0.0199563 -0.5
    endloop
  endfacet
  facet normal 0.96355 0.267528 0
    outer loop
      vertex 0.0592283 0.0199563 -0.5
      vertex 0.0610388 0.0134357 0.5
      vertex 0.0610388 0.0134357 -0.5
    endloop
  endfacet
  facet normal 0.986827 0.161782 0
    outer loop
      vertex 0.0610388 0.0134357 0.5
      vertex 0.0621336 0.00675744 0.5
      vertex 0.0610388 0.0134357 -0.5
    endloop
  endfacet
  facet normal 0.986827 0.161782 0
    outer loop
      vertex 0.0610388 0.0134357 -0.5
      vertex 0.0621336 0.00675744 0.5
      vertex 0.0621336 0.00675744 -0.5
    endloop
  endfacet
  facet normal 0.998533 0.054139 0
    outer loop
      vertex 0.0621336 0.00675744 0.5
      vertex 0.0625 2.67891e-17 0.5
      vertex 0.0621336 0.00675744 -0.5
    endloop
  endfacet
  facet normal 0.998533 0.054139 -8.13569e-19
    outer loop
      vertex 0.0621336 0.00675744 -0.5
      vertex 0.0625 2.67891e-17 0.5
      vertex 0.0625 1.14811e-17 -0.5
    endloop
  endfacet
  facet normal 0.998533 -0.054139 8.28765e-19
    outer loop
      vertex 0.0625 2.67891e-17 0.5
      vertex 0.0621336 -0.00675744 0.5
      vertex 0.0625 1.14811e-17 -0.5
    endloop
  endfacet
  facet normal 0.998533 -0.054139 0
    outer loop
      vertex 0.0625 1.14811e-17 -0.5
      vertex 0.0621336 -0.00675744 0.5
      vertex 0.0621336 -0.00675744 -0.5
    endloop
  endfacet
  facet normal 0.986827 -0.161782 0
    outer loop
      vertex 0.0621336 -0.00675744 0.5
      vertex 0.0610388 -0.0134357 0.5
      vertex 0.0621336 -0.00675744 -0.5
    endloop
  endfacet
  facet normal 0.986827 -0.161782 0
    outer loop
      vertex 0.0621336 -0.00675744 -0.5
      vertex 0.0610388 -0.0134357 0.5
      vertex 0.0610388 -0.0134357 -0.5
    endloop
  endfacet
  facet normal 0.96355 -0.267528 0
    outer loop
      vertex 0.0610388 -0.0134357 0.5
      vertex 0.0592283 -0.0199563 0.5
      vertex 0.0610388 -0.0134357 -0.5
    endloop
  endfacet
  facet normal 0.96355 -0.267528 0
    outer loop
      vertex 0.0610388 -0.0134357 -0.5
      vertex 0.0592283 -0.0199563 0.5
      vertex 0.0592283 -0.0199563 -0.5
    endloop
  endfacet
  facet normal 0.928977 -0.370138 0
    outer loop
      vertex 0.0592283 -0.0199563 0.5
      vertex 0.0567235 -0.0262431 0.5
      vertex 0.0592283 -0.0199563 -0.5
    endloop
  endfacet
  facet normal 0.928977 -0.370138 0
    outer loop
      vertex 0.0592283 -0.0199563 -0.5
      vertex 0.0567235 -0.0262431 0.5
      vertex 0.0567235 -0.0262431 -0.5
    endloop
  endfacet
  facet normal 0.883512 -0.468409 0
    outer loop
      vertex 0.0567235 -0.0262431 0.5
      vertex 0.0535536 -0.0322221 0.5
      vertex 0.0567235 -0.0262431 -0.5
    endloop
  endfacet
  facet normal 0.883512 -0.468409 0
    outer loop
      vertex 0.0567235 -0.0262431 -0.5
      vertex 0.0535536 -0.0322221 0.5
      vertex 0.0535536 -0.0322221 -0.5
    endloop
  endfacet
  facet normal 0.827689 -0.561187 0
    outer loop
      vertex 0.0535536 -0.0322221 0.5
      vertex 0.0497558 -0.0378234 0.5
      vertex 0.0535536 -0.0322221 -0.5
    endloop
  endfacet
  facet normal 0.827689 -0.561187 0
    outer loop
      vertex 0.0535536 -0.0322221 -0.5
      vertex 0.0497558 -0.0378234 0.5
      vertex 0.0497558 -0.0378234 -0.5
    endloop
  endfacet
  facet normal 0.762162 -0.647386 0
    outer loop
      vertex 0.0497558 -0.0378234 0.5
      vertex 0.0453747 -0.0429812 0.5
      vertex 0.0497558 -0.0378234 -0.5
    endloop
  endfacet
  facet normal 0.762162 -0.647386 0
    outer loop
      vertex 0.0497558 -0.0378234 -0.5
      vertex 0.0453747 -0.0429812 0.5
      vertex 0.0453747 -0.0429812 -0.5
    endloop
  endfacet
  facet normal 0.6877 -0.725995 0
    outer loop
      vertex 0.0453747 -0.0429812 0.5
      vertex 0.0404616 -0.0476351 0.5
      vertex 0.0453747 -0.0429812 -0.5
    endloop
  endfacet
  facet normal 0.6877 -0.725995 0
    outer loop
      vertex 0.0453747 -0.0429812 -0.5
      vertex 0.0404616 -0.0476351 0.5
      vertex 0.0404616 -0.0476351 -0.5
    endloop
  endfacet
  facet normal 0.605174 -0.796093 0
    outer loop
      vertex 0.0404616 -0.0476351 0.5
      vertex 0.0350742 -0.0517306 0.5
      vertex 0.0404616 -0.0476351 -0.5
    endloop
  endfacet
  facet normal 0.605174 -0.796093 0
    outer loop
      vertex 0.0404616 -0.0476351 -0.5
      vertex 0.0350742 -0.0517306 0.5
      vertex 0.0350742 -0.0517306 -0.5
    endloop
  endfacet
  facet normal 0.515554 -0.856857 0
    outer loop
      vertex 0.0350742 -0.0517306 0.5
      vertex 0.0292755 -0.0552195 0.5
      vertex 0.0350742 -0.0517306 -0.5
    endloop
  endfacet
  facet normal 0.515554 -0.856857 0
    outer loop
      vertex 0.0350742 -0.0517306 -0.5
      vertex 0.0292755 -0.0552195 0.5
      vertex 0.0292755 -0.0552195 -0.5
    endloop
  endfacet
  facet normal 0.419889 -0.907575 0
    outer loop
      vertex 0.0292755 -0.0552195 0.5
      vertex 0.0231336 -0.058061 0.5
      vertex 0.0292755 -0.0552195 -0.5
    endloop
  endfacet
  facet normal 0.419889 -0.907575 0
    outer loop
      vertex 0.0292755 -0.0552195 -0.5
      vertex 0.0231336 -0.058061 0.5
      vertex 0.0231336 -0.058061 -0.5
    endloop
  endfacet
  facet normal 0.319301 -0.947653 0
    outer loop
      vertex 0.0231336 -0.058061 0.5
      vertex 0.0167205 -0.0602219 0.5
      vertex 0.0231336 -0.058061 -0.5
    endloop
  endfacet
  facet normal 0.319301 -0.947653 0
    outer loop
      vertex 0.0231336 -0.058061 -0.5
      vertex 0.0167205 -0.0602219 0.5
      vertex 0.0167205 -0.0602219 -0.5
    endloop
  endfacet
  facet normal 0.214971 -0.97662 0
    outer loop
      vertex 0.0167205 -0.0602219 0.5
      vertex 0.0101114 -0.0616767 0.5
      vertex 0.0167205 -0.0602219 -0.5
    endloop
  endfacet
  facet normal 0.214971 -0.97662 0
    outer loop
      vertex 0.0167205 -0.0602219 -0.5
      vertex 0.0101114 -0.0616767 0.5
      vertex 0.0101114 -0.0616767 -0.5
    endloop
  endfacet
  facet normal 0.108119 -0.994138 0
    outer loop
      vertex 0.0101114 -0.0616767 0.5
      vertex 0.00338368 -0.0624083 0.5
      vertex 0.0101114 -0.0616767 -0.5
    endloop
  endfacet
  facet normal 0.108119 -0.994138 0
    outer loop
      vertex 0.0101114 -0.0616767 -0.5
      vertex 0.00338368 -0.0624083 0.5
      vertex 0.00338368 -0.0624083 -0.5
    endloop
  endfacet
  facet normal 0 -1 0
    outer loop
      vertex 0.00338368 -0.0624083 0.5
      vertex -0.00338368 -0.0624083 0.5
      vertex 0.00338368 -0.0624083 -0.5
    endloop
  endfacet
  facet normal 0 -1 0
    outer loop
      vertex 0.00338368 -0.0624083 -0.5
      vertex -0.00338368 -0.0624083 0.5
      vertex -0.00338368 -0.0624083 -0.5
    endloop
  endfacet
  facet normal -0.108119 -0.994138 0
    outer loop
      vertex -0.00338368 -0.0624083 0.5
      vertex -0.0101114 -0.0616767 0.5
      vertex -0.00338368 -0.0624083 -0.5
    endloop
  endfacet
  facet normal -0.108119 -0.994138 0
    outer loop
      vertex -0.00338368 -0.0624083 -0.5
      vertex -0.0101114 -0.0616767 0.5
      vertex -0.0101114 -0.0616767 -0.5
    endloop
  endfacet
  facet normal -0.214971 -0.97662 0
    outer loop
      vertex -0.0101114 -0.0616767 0.5
      vertex -0.0167205 -0.0602219 0.5
      vertex -0.0101114 -0.0616767 -0.5
    endloop
  endfacet
  facet normal -0.214971 -0.97662 0
    outer loop
      vertex -0.0101114 -0.0616767 -0.5
      vertex -0.0167205 -0.0602219 0.5
      vertex -0.0167205 -0.0602219 -0.5
    endloop
  endfacet
  facet normal -0.319301 -0.947653 0
    outer loop
      vertex -0.0167205 -0.0602219 0.5
      vertex -0.0231336 -0.058061 0.5
      vertex -0.0167205 -0.0602219 -0.5
    endloop
  endfacet
  facet normal -0.319301 -0.947653 0
    outer loop
      vertex -0.0167205 -0.0602219 -0.5
      vertex -0.0231336 -0.058061 0.5
      vertex -0.0231336 -0.058061 -0.5
    endloop
  endfacet
  facet normal -0.419889 -0.907575 0
    outer loop
      vertex -0.0231336 -0.058061 0.5
      vertex -0.0292755 -0.0552195 0.5
      vertex -0.0231336 -0.058061 -0.5
    endloop
  endfacet
  facet normal -0.419889 -0.907575 0
    outer loop
      vertex -0.0231336 -0.058061 -0.5
      vertex -0.0292755 -0.0552195 0.5
      vertex -0.0292755 -0.0552195 -0.5
    endloop
  endfacet
  facet normal -0.515554 -0.856857 0
    outer loop
      vertex -0.0292755 -0.0552195 0.5
      vertex -0.0350742 -0.0517306 0.5
      vertex -0.0292755 -0.0552195 -0.5
    endloop
  endfacet
  facet normal -0.515554 -0.856857 0
    outer loop
      vertex -0.0292755 -0.0552195 -0.5
      vertex -0.0350742 -0.0517306 0.5
      vertex -0.0350742 -0.0517306 -0.5
    endloop
  endfacet
  facet normal -0.605174 -0.796093 0
    outer loop
      vertex -0.0350742 -0.0517306 0.5
      vertex -0.0404616 -0.0476351 0.5
      vertex -0.0350742 -0.0517306 -0.5
    endloop
  endfacet
  facet normal -0.605174 -0.796093 0
    outer loop
      vertex -0.0350742 -0.0517306 -0.5
      vertex -0.0404616 -0.0476351 0.5
      vertex -0.0404616 -0.0476351 -0.5
    endloop
  endfacet
  facet normal -0.6877 -0.725995 0
    outer loop
      vertex -0.0404616 -0.0476351 0.5
      vertex -0.0453747 -0.0429812 0.5
      vertex -0.0404616 -0.0476351 -0.5
    endloop
  endfacet
  facet normal -0.6877 -0.725995 0
    outer loop
      vertex -0.0404616 -0.0476351 -0.5
      vertex -0.0453747 -0.0429812 0.5
      vertex -0.0453747 -0.0429812 -0.5
    endloop
  endfacet
  facet normal -0.762162 -0.647386 0
    outer loop
      vertex -0.0453747 -0.0429812 0.5
      vertex -0.0497558 -0.0378234 0.5
      vertex -0.0453747 -0.0429812 -0.5
    endloop
  endfacet
  facet normal -0.762162 -0.647386 0
    outer loop
      vertex -0.0453747 -0.0429812 -0.5
      vertex -0.0497558 -0.0378234 0.5
      vertex -0.0497558 -0.0378234 -0.5
    endloop
  endfacet
  facet normal -0.827689 -0.561187 0
    outer loop
      vertex -0.0497558 -0.0378234 0.5
      vertex -0.0535536 -0.0322221 0.5
      vertex -0.0497558 -0.0378234 -0.5
    endloop
  endfacet
  facet normal -0.827689 -0.561187 0
    outer loop
      vertex -0.0497558 -0.0378234 -0.5
      vertex -0.0535536 -0.0322221 0.5
      vertex -0.0535536 -0.0322221 -0.5
    endloop
  endfacet
  facet normal -0.883512 -0.468409 0
    outer loop
      vertex -0.0535536 -0.0322221 0.5
      vertex -0.0567235 -0.0262431 0.5
      vertex -0.0535536 -0.0322221 -0.5
    endloop
  endfacet
  facet normal -0.883512 -0.468409 0
    outer loop
      vertex -0.0535536 -0.0322221 -0.5
      vertex -0.0567235 -0.0262431 0.5
      vertex -0.0567235 -0.0262431 -0.5
    endloop
  endfacet
  facet normal -0.928977 -0.370138 0
    outer loop
      vertex -0.0567235 -0.0262431 0.5
      vertex -0.0592283 -0.0199563 0.5
      vertex -0.0567235 -0.0262431 -0.5
    endloop
  endfacet
  facet normal -0.928977 -0.370138 0
    outer loop
      vertex -0.0567235 -0.0262431 -0.5
      vertex -0.0592283 -0.0199563 0.5
      vertex -0.0592283 -0.0199563 -0.5
    endloop
  endfacet
  facet normal -0.96355 -0.267528 0
    outer loop
      vertex -0.0592283 -0.0199563 0.5
      vertex -0.0610388 -0.0134357 0.5
      vertex -0.0592283 -0.0199563 -0.5
    endloop
  endfacet
  facet normal -0.96355 -0.267528 0
    outer loop
      vertex -0.0592283 -0.0199563 -0.5
      vertex -0.0610388 -0.0134357 0.5
      vertex -0.0610388 -0.0134357 -0.5
    endloop
  endfacet
  facet normal -0.986827 -0.161782 0
    outer loop
      vertex -0.0610388 -0.0134357 0.5
      vertex -0.0621336 -0.00675744 0.5
      vertex -0.0610388 -0.0134357 -0.5
    endloop
  endfacet
  facet normal -0.986827 -0.161782 0
    outer loop
      vertex -0.0610388 -0.0134357 -0.5
      vertex -0.0621336 -0.00675744 0.5
      vertex -0.0621336 -0.00675744 -0.5
    endloop
  endfacet
  facet normal -0.998533 -0.054139 0
    outer loop
      vertex -0.0621336 -0.00675744 0.5
      vertex -0.0625 3.82702e-18 0.5
      vertex -0.0621336 -0.00675744 -0.5
    endloop
  endfacet
  facet normal -0.998533 -0.054139 0
    outer loop
      vertex -0.0621336 -0.00675744 -0.5
      vertex -0.0625 3.82702e-18 0.5
      vertex -0.0625 3.82702e-18 -0.5
    endloop
  endfacet
  facet normal -0.998533 0.054139 0
    outer loop
      vertex -0.0625 3.82702e-18 0.5
      vertex -0.0621336 0.00675744 0.5
      vertex -0.0625 3.82702e-18 -0.5
    endloop
  endfacet
  facet normal 0 0 1
    outer loop
      vertex 0.0625 2.67891e-17 0.5
      vertex 0.0621336 0.00675744 0.5
      vertex 0 3.82702e-18 0.5
    endloop
  endfacet
  facet normal 0 0 1
    outer loop
      vertex 0.0592283 -0.0199563 0.5
      vertex 0.0610388 -0.0134357 0.5
      vertex 0 3.82702e-18 0.5
    endloop
  endfacet
  facet normal 0 0 1
    outer loop
      vertex 0.0610388 -0.0134357 0.5
      vertex 0.0621336 -0.00675744 0.5
      vertex 0 3.82702e-18 0.5
    endloop
  endfacet
  facet normal 0 0 1
    outer loop
      vertex 0 3.82702e-18 0.5
      vertex 0.0621336 -0.00675744 0.5
      vertex 0.0625 2.67891e-17 0.5
    endloop
  endfacet
  facet normal 0 0 1
    outer loop
      vertex 0.0497558 -0.0378234 0.5
      vertex 0.0535536 -0.0322221 0.5
      vertex 0 3.82702e-18 0.5
    endloop
  endfacet
  facet normal 0 0 1
    outer loop
      vertex 0.0535536 -0.0322221 0.5
      vertex 0.0567235 -0.0262431 0.5
      vertex 0 3.82702e-18 0.5
    endloop
  endfacet
  facet normal 0 0 1
    outer loop
      vertex 0 3.82702e-18 0.5
      vertex 0.0567235 -0.0262431 0.5
      vertex 0.0592283 -0.0199563 0.5
    endloop
  endfacet
  facet normal 0 0 1
    outer loop
      vertex 0.0350742 -0.0517306 0.5
      vertex 0.0404616 -0.0476351 0.5
      vertex 0 3.82702e-18 0.5
    endloop
  endfacet
  facet normal 0 0 1
    outer loop
      vertex 0.0404616 -0.0476351 0.5
      vertex 0.0453747 -0.0429812 0.5
      vertex 0 3.82702e-18 0.5
    endloop
  endfacet
  facet normal 0 0 1
    outer loop
      vertex 0 3.82702e-18 0.5
      vertex 0.0453747 -0.0429812 0.5
      vertex 0.0497558 -0.0378234 0.5
    endloop
  endfacet
  facet normal 0 0 1
    outer loop
      vertex 0.0167205 -0.0602219 0.5
      vertex 0.0231336 -0.058061 0.5
      vertex 0 3.82702e-18 0.5
    endloop
  endfacet
  facet normal 0 0 1
    outer loop
      vertex 0.0231336 -0.058061 0.5
      vertex 0.0292755 -0.0552195 0.5
      vertex 0 3.82702e-18 0.5
    endloop
  endfacet
  facet normal 0 0 1
    outer loop
      vertex 0 3.82702e-18 0.5
      vertex 0.0292755 -0.0552195 0.5
      vertex 0.0350742 -0.0517306 0.5
    endloop
  endfacet
  facet normal 0 0 1
    outer loop
      vertex -0.00338368 -0.0624083 0.5
      vertex 0.00338368 -0.0624083 0.5
      vertex 0 3.82702e-18 0.5
    endloop
  endfacet
  facet normal 0 0 1
    outer loop
      vertex 0.00338368 -0.0624083 0.5
      vertex 0.0101114 -0.0616767 0.5
      vertex 0 3.82702e-18 0.5
    endloop
  endfacet
  facet normal 0 0 1
    outer loop
      vertex 0 3.82702e-18 0.5
      vertex 0.0101114 -0.0616767 0.5
      vertex 0.0167205 -0.0602219 0.5
    endloop
  endfacet
  facet normal 0 0 1
    outer loop
      vertex -0.0231336 -0.058061 0.5
      vertex -0.0167205 -0.0602219 0.5
      vertex 0 3.82702e-18 0.5
    endloop
  endfacet
  facet normal 0 0 1
    outer loop
      vertex -0.0167205 -0.0602219 0.5
      vertex -0.0101114 -0.0616767 0.5
      vertex 0 3.82702e-18 0.5
    endloop
  endfacet
  facet normal 0 0 1
    outer loop
      vertex 0 3.82702e-18 0.5
      vertex -0.0101114 -0.0616767 0.5
      vertex -0.00338368 -0.0624083 0.5
    endloop
  endfacet
  facet normal 0 0 1
    outer loop
      vertex -0.0404616 -0.0476351 0.5
      vertex -0.0350742 -0.0517306 0.5
      vertex 0 3.82702e-18 0.5
    endloop
  endfacet
  facet normal 0 0 1
    outer loop
      vertex -0.0350742 -0.0517306 0.5
      vertex -0.0292755 -0.0552195 0.5
      vertex 0 3.82702e-18 0.5
    endloop
  endfacet
  facet normal 0 0 1
    outer loop
      vertex 0 3.82702e-18 0.5
      vertex -0.0292755 -0.0552195 0.5
      vertex -0.0231336 -0.058061 0.5
    endloop
  endfacet
  facet normal 0 0 1
    outer loop
      vertex -0.0535536 -0.0322221 0.5
      vertex -0.0497558 -0.0378234 0.5
      vertex 0 3.82702e-18 0.5
    endloop
  endfacet
  facet normal 0 0 1
    outer loop
      vertex -0.0497558 -0.0378234 0.5
      vertex -0.0453747 -0.0429812 0.5
      vertex 0 3.82702e-18 0.5
    endloop
  endfacet
  facet normal 0 0 1
    outer loop
      vertex 0 3.82702e-18 0.5
      vertex -0.0453747 -0.0429812 0.5
      vertex -0.0404616 -0.0476351 0.5
    endloop
  endfacet
  facet normal 0 0 1
    outer loop
      vertex -0.0610388 -0.0134357 0.5
      vertex -0.0592283 -0.0199563 0.5
      vertex 0 3.82702e-18 0.5
    endloop
  endfacet
  facet normal 0 0 1
    outer loop
      vertex -0.0592283 -0.0199563 0.5
      vertex -0.0567235 -0.0262431 0.5
      vertex 0 3.82702e-18 0.5
    endloop
  endfacet
  facet normal 0 0 1
    outer loop
      vertex 0 3.82702e-18 0.5
      vertex -0.0567235 -0.0262431 0.5
      vertex -0.0535536 -0.0322221 0.5
    endloop
  endfacet
  facet normal 0 0 1
    outer loop
      vertex -0.0621336 0.00675744 0.5
      vertex -0.0625 3.82702e-18 0.5
      vertex 0 3.82702e-18 0.5
    endloop
  endfacet
  facet normal 0 0 1
    outer loop
      vertex -0.0625 3.82702e-18 0.5
      vertex -0.0621336 -0.00675744 0.5
      vertex 0 3.82702e-18 0.5
    endloop
  endfacet
  facet normal 0 0 1
    outer loop
      vertex 0 3.82702e-18 0.5
      vertex -0.0621336 -0.00675744 0.5
      vertex -0.0610388 -0.0134357 0.5
    endloop
  endfacet
  facet normal 0 0 1
    outer loop
      vertex -0.0567235 0.0262431 0.5
      vertex -0.0592283 0.0199563 0.5
      vertex 0 3.82702e-18 0.5
    endloop
  endfacet
  facet normal 0 0 1
    outer loop
      vertex -0.0592283 0.0199563 0.5
      vertex -0.0610388 0.0134357 0.5
      vertex 0 3.82702e-18 0.5
    endloop
  endfacet
  facet normal 0 0 1
    outer loop
      vertex 0 3.82702e-18 0.5
      vertex -0.0610388 0.0134357 0.5
      vertex -0.0621336 0.00675744 0.5
    endloop
  endfacet
  facet normal 0 0 1
    outer loop
      vertex -0.0453747 0.0429812 0.5
      vertex -0.0497558 0.0378234 0.5
      vertex 0 3.82702e-18 0.5
    endloop
  endfacet
  facet normal 0 0 1
    outer loop
      vertex -0.0497558 0.0378234 0.5
      vertex -0.0535536 0.0322221 0.5
      vertex 0 3.82702e-18 0.5
    endloop
  endfacet
  facet normal 0 0 1
    outer loop
      vertex 0 3.82702e-18 0.5
      vertex -0.0535536 0.0322221 0.5
      vertex -0.0567235 0.0262431 0.5
    endloop
  endfacet
  facet normal 0 0 1
    outer loop
      vertex -0.0292755 0.0552195 0.5
      vertex -0.0350742 0.0517306 0.5
      vertex 0 3.82702e-18 0.5
    endloop
  endfacet
  facet normal 0 0 1
    outer loop
      vertex -0.0350742 0.0517306 0.5
      vertex -0.0404616 0.0476351 0.5
      vertex 0 3.82702e-18 0.5
    endloop
  endfacet
  facet normal 0 0 1
    outer loop
      vertex 0 3.82702e-18 0.5
      vertex -0.0404616 0.0476351 0.5
      vertex -0.0453747 0.0429812 0.5
    endloop
  endfacet
  facet normal 0 0 1
    outer loop
      vertex -0.0101114 0.0616767 0.5
      vertex -0.0167205 0.0602219 0.5
      vertex 0 3.82702e-18 0.5
    endloop
  endfacet
  facet normal 0 0 1
    outer loop
      vertex -0.0167205 0.0602219 0.5
      vertex -0.0231336 0.058061 0.5
      vertex 0 3.82702e-18 0.5
    endloop
  endfacet
  facet normal 0 0 1
    outer loop
      vertex 0 3.82702e-18 0.5
      vertex -0.0231336 0.058061 0.5
      vertex -0.0292755 0.0552195 0.5
    endloop
  endfacet
  facet normal 0 0 1
    outer loop
      vertex 0.0101114 0.0616767 0.5
      vertex 0.00338368 0.0624083 0.5
      vertex 0 3.82702e-18 0.5
    endloop
  endfacet
  facet normal 0 0 1
    outer loop
      vertex 0.00338368 0.0624083 0.5
      vertex -0.00338368 0.0624083 0.5
      vertex 0 3.82702e-18 0.5
    endloop
  endfacet
  facet normal 0 0 1
    outer loop
      vertex 0 3.82702e-18 0.5
      vertex -0.00338368 0.0624083 0.5
      vertex -0.0101114 0.0616767 0.5
    endloop
  endfacet
  facet normal 0 0 1
    outer loop
      vertex 0.0292755 0.0552195 0.5
      vertex 0.0231336 0.058061 0.5
      vertex 0 3.82702e-18 0.5
    endloop
  endfacet
  facet normal 0 0 1
    outer loop
      vertex 0.0231336 0.058061 0.5
      vertex 0.0167205 0.0602219 0.5
      vertex 0 3.82702e-18 0.5
    endloop
  endfacet
  facet normal 0 0 1
    outer loop
      vertex 0 3.82702e-18 0.5
      vertex 0.0167205 0.0602219 0.5
      vertex 0.0101114 0.0616767 0.5
    endloop
  endfacet
  facet normal 0 0 1
    outer loop
      vertex 0.0453747 0.0429812 0.5
      vertex 0.0404616 0.0476351 0.5
      vertex 0 3.82702e-18 0.5
    endloop
  endfacet
  facet normal 0 0 1
    outer loop
      vertex 0.0404616 0.0476351 0.5
      vertex 0.0350742 0.0517306 0.5
      vertex 0 3.82702e-18 0.5
    endloop
  endfacet
  facet normal 0 0 1
    outer loop
      vertex 0 3.82702e-18 0.5
      vertex 0.0350742 0.0517306 0.5
      vertex 0.0292755 0.0552195 0.5
    endloop
  endfacet
  facet normal 0 0 1
    outer loop
      vertex 0.0567235 0.0262431 0.5
      vertex 0.0535536 0.0322221 0.5
      vertex 0 3.82702e-18 0.5
    endloop
  endfacet
  facet normal 0 0 1
    outer loop
      vertex 0.0535536 0.0322221 0.5
      vertex 0.0497558 0.0378234 0.5
      vertex 0 3.82702e-18 0.5
    endloop
  endfacet
  facet normal 0 0 1
    outer loop
      vertex 0 3.82702e-18 0.5
      vertex 0.0497558 0.0378234 0.5
      vertex 0.0453747 0.0429812 0.5
    endloop
  endfacet
  facet normal 0 0 1
    outer loop
      vertex 0.0621336 0.00675744 0.5
      vertex 0.0610388 0.0134357 0.5
      vertex 0 3.82702e-18 0.5
    endloop
  endfacet
  facet normal 0 0 1
    outer loop
      vertex 0.0610388 0.0134357 0.5
      vertex 0.0592283 0.0199563 0.5
      vertex 0 3.82702e-18 0.5
    endloop
  endfacet
  facet normal 0 0 1
    outer loop
      vertex 0 3.82702e-18 0.5
      vertex 0.0592283 0.0199563 0.5
      vertex 0.0567235 0.0262431 0.5
    endloop
  endfacet
endsolid Onshape
